{"totalPages": 2, "totalElements": 108, "pageNumber": 0, "pageSize": 100, "content": [{"id": 481508, "titulo": "ANUNCIO de la convocatoria para la provisión en propiedad de dos plazas de agente de policía local, una por turno libre ordinario y una por turno de movilidad.", "seccion": {"id": 13, "descripcion": "II. AUTORIDADES Y PERSONAL"}, "subseccion": {"id": 28, "descripcion": "A) OFERTAS DE EMPLEO PÚBLICO, OPOSICIONES Y CONCURSOS"}, "paginaInicial": "3853", "organismo": "Ayuntamiento de Castalla", "consolidacion": false, "fechaPublicacion": "02/07/2026", "fechaDisposicion": "10/06/2026", "fechaVigor": "10/06/2026", "codigoInsercion": "2026/20221", "numeroDogv": 10396, "numOrden": 1, "estado": {"descripcion": "VIGENTE"}, "urlPdf": "/2026/07/02/pdf/2026_20221_es.pdf", "borrador": false}, {"id": 481510, "titulo": "ANUNCIO de la aprobación de la oferta pública de empleo para 2026.", "seccion": {"id": 13, "descripcion": "II. AUTORIDADES Y PERSONAL"}, "subseccion": {"id": 28, "descripcion": "A) OFERTAS DE EMPLEO PÚBLICO, OPOSICIONES Y CONCURSOS"}, "paginaInicial": "3853", "organismo": "Ayuntamiento de Picanya", "consolidacion": false, "fechaPublicacion": "02/07/2026", "fechaDisposicion": "05/06/2026", "fechaVigor": "05/06/2026", "codigoInsercion": "2026/20223", "numeroDogv": 10396, "numOrden": 1, "estado": {"descripcion": "VIGENTE"}, "urlPdf": "/2026/07/02/pdf/2026_20223_es.pdf", "borrador": false}, {"id": 481525, "titulo": "ANUNCIO de aprobación de la oferta de empleo público para 2026.", "seccion": {"id": 13, "descripcion": "II. AUTORIDADES Y PERSONAL"}, "subseccion": {"id": 28, "descripcion": "A) OFERTAS DE EMPLEO PÚBLICO, OPOSICIONES Y CONCURSOS"}, "paginaInicial": "3853", "organismo": "Ayuntamiento de Benifaió", "consolidacion": false, "fechaPublicacion": "02/07/2026", "fechaDisposicion": "10/06/2026", "fechaVigor": "03/07/2026", "codigoInsercion": "2026/20238", "numeroDogv": 10396, "numOrden": 1, "estado": {"descripcion": "VIGENTE"}, "urlPdf": "/2026/07/02/pdf/2026_20238_es.pdf", "borrador": false}, {"id": 481710, "titulo": "CORRECCIÓN DE ERRORES de la Resolución de 28 de mayo de 2026, del Rectorado, por la que se convoca concurso de méritos para las funcionarias y los funcionarios de carrera del grupo A (subgrupo A2), de la escala técnica media de investigación, subescala biológica, química o sanitaria, sector de administración especial, de esta Universidad (A2_2657CM).", "seccion": {"id": 13, "descripcion": "II. AUTORIDADES Y PERSONAL"}, "subseccion": {"id": 28, "descripcion": "A) OFERTAS DE EMPLEO PÚBLICO, OPOSICIONES Y CONCURSOS"}, "paginaInicial": "3853", "organismo": "Universitat de València", "consolidacion": false, "fechaPublicacion": "02/07/2026", "fechaDisposicion": "10/06/2026", "fechaVigor": "10/06/2026", "codigoInsercion": "2026/20423", "numeroDogv": 10396, "numOrden": 1, "estado": {"descripcion": "VIGENTE"}, "urlPdf": "/2026/07/02/pdf/2026_20423_es.pdf", "borrador": false}, {"id": 481932, "titulo": "CORRECCIÓN DE ERRORES de la Resolución de 27 de mayo de 2026, del Rectorado, por la que se convocan pruebas selectivas de acceso al grupo A (subgrupo A1), por el turno libre, sector de administración especial, escala técnica superior de planificación, análisis y evaluación, subescala de calidad, de esta Universidad (A1_2623TLO).", "seccion": {"id": 13, "descripcion": "II. AUTORIDADES Y PERSONAL"}, "subseccion": {"id": 28, "descripcion": "A) OFERTAS DE EMPLEO PÚBLICO, OPOSICIONES Y CONCURSOS"}, "paginaInicial": "3853", "organismo": "Universitat de València", "consolidacion": false, "fechaPublicacion": "02/07/2026", "fechaDisposicion": "11/06/2026", "fechaVigor": "11/06/2026", "codigoInsercion": "2026/20645", "numeroDogv": 10396, "numOrden": 1, "estado": {"descripcion": "VIGENTE"}, "urlPdf": "/2026/07/02/pdf/2026_20645_es.pdf", "borrador": false}, {"id": 482487, "titulo": "RESOLUCIÓN de 16 junio de 2026, de la Presidencia, de adjudicación de puestos y formalización de contratos laborales fijos de las personas que han superado el proceso selectivo de acceso a los puestos de grupo B, convocatorias 9/22 10/22, 13/22, 15/22 y 16/22, del proceso excepcional de estabilización por el sistema de concurso de méritos, para cubrir los puestos previstos en la oferta pública de empleo (OPE) de 2022 de la entidad, en ejecución de la Ley 20/2021, de 28 de diciembre, de medidas urgentes para la reducción de la temporalidad en el empleo público.", "seccion": {"id": 13, "descripcion": "II. AUTORIDADES Y PERSONAL"}, "subseccion": {"id": 28, "descripcion": "A) OFERTAS DE EMPLEO PÚBLICO, OPOSICIONES Y CONCURSOS"}, "paginaInicial": "3853", "organismo": "Turisme Comunitat Valenciana", "consolidacion": false, "fechaPublicacion": "02/07/2026", "fechaDisposicion": "16/06/2026", "fechaVigor": "02/07/2026", "codigoInsercion": "2026/21200", "numeroDogv": 10396, "numOrden": 1, "estado": {"descripcion": "VIGENTE"}, "urlPdf": "/2026/07/02/pdf/2026_21200_es.pdf", "borrador": false}, {"id": 483348, "titulo": "RESOLUCIÓN de 23 de junio de 2026, del Rectorado, por la que se convoca una plaza de personal investigador júnior para colaborar en el proyecto de investigación: 26I225 NANOGROC. ", "seccion": {"id": 13, "descripcion": "II. AUTORIDADES Y PERSONAL"}, "subseccion": {"id": 28, "descripcion": "A) OFERTAS DE EMPLEO PÚBLICO, OPOSICIONES Y CONCURSOS"}, "paginaInicial": "3853", "organismo": "Universitat Jaume I de Castelló", "consolidacion": false, "fechaPublicacion": "02/07/2026", "fechaDisposicion": "23/06/2026", "fechaVigor": "03/07/2026", "codigoInsercion": "2026/22061", "numeroDogv": 10396, "numOrden": 1, "estado": {"descripcion": "VIGENTE"}, "urlPdf": "/2026/07/02/pdf/2026_22061_es.pdf", "borrador": false}, {"id": 483349, "titulo": "RESOLUCIÓN de 23 de junio de 2026, del Rectorado, por la que se convoca una plaza de personal tecnólogo o gestor superior para colaborar en el proyecto de investigación: «25I328 Plataforma inteligente para la estimación de producción en cultivos basada en imágenes terrestres y aéreas». Departamento de Ingeniería de Sistemas Industriales y Diseño. Grupo de investigación: Ingeniería de Fabricación. ", "seccion": {"id": 13, "descripcion": "II. AUTORIDADES Y PERSONAL"}, "subseccion": {"id": 28, "descripcion": "A) OFERTAS DE EMPLEO PÚBLICO, OPOSICIONES Y CONCURSOS"}, "paginaInicial": "3853", "organismo": "Universitat Jaume I de Castelló", "consolidacion": false, "fechaPublicacion": "02/07/2026", "fechaDisposicion": "23/06/2026", "fechaVigor": "03/07/2026", "codigoInsercion": "2026/22062", "numeroDogv": 10396, "numOrden": 1, "estado": {"descripcion": "VIGENTE"}, "urlPdf": "/2026/07/02/pdf/2026_22062_es.pdf", "borrador": false}], "existsNumDogv": false}